%!PS-Adobe-3.0
%%Title: newProject.js
%%For: 1002183
%%Creator: VIM - Vi IMproved 8.2 (2019 Dec 12)
%%CreationDate: Tue Dec 14 09:22:18 2021
%%DocumentData: Clean8Bit
%%Orientation: Portrait
%%Pages: (atend)
%%PageOrder: Ascend
%%BoundingBox: 59 49 516 800
%%DocumentMedia: A4 595 842 0 () ()
%%DocumentNeededResources: font Courier
%%+ font Courier-Bold
%%+ font Courier-Oblique
%%+ font Courier-BoldOblique
%%DocumentSuppliedResources: procset VIM-Prolog 1.4 1
%%+ encoding VIM-latin1 1.0 0
%%Requirements: duplex collate color
%%EndComments
%%BeginDefaults
%%PageResources: font Courier
%%+ font Courier-Bold
%%+ font Courier-Oblique
%%+ font Courier-BoldOblique
%%PageMedia: A4
%%EndDefaults
%%BeginProlog
%%BeginResource: procset VIM-Prolog
%%BeginDocument: /usr/share/vim/vim82/print/prolog.ps
%!PS-Adobe-3.0 Resource-ProcSet
%%Title: VIM-Prolog
%%Version: 1.4 1
%%EndComments
% Editing of this file is NOT RECOMMENDED.  You run a very good risk of causing
% all PostScript printing from VIM failing if you do.  PostScript is not called
% a write-only language for nothing!
/packedarray where not{userdict begin/setpacking/pop load def/currentpacking
false def end}{pop}ifelse/CP currentpacking def true setpacking
/bd{bind def}bind def/ld{load def}bd/ed{exch def}bd/d/def ld
/db{dict begin}bd/cde{currentdict end}bd
/T true d/F false d
/SO null d/sv{/SO save d}bd/re{SO restore}bd
/L2 systemdict/languagelevel 2 copy known{get exec}{pop pop 1}ifelse 2 ge d
/m/moveto ld/s/show ld /ms{m s}bd /g/setgray ld/r/setrgbcolor ld/sp{showpage}bd
/gs/gsave ld/gr/grestore ld/cp/currentpoint ld
/ul{gs UW setlinewidth cp UO add 2 copy newpath m 3 1 roll add exch lineto
stroke gr}bd
/bg{gs r cp BO add 4 -2 roll rectfill gr}bd
/sl{90 rotate 0 exch translate}bd
L2{
/sspd{mark exch{setpagedevice}stopped cleartomark}bd
/nc{1 db/NumCopies ed cde sspd}bd
/sps{3 db/Orientation ed[3 1 roll]/PageSize ed/ImagingBBox null d cde sspd}bd
/dt{2 db/Tumble ed/Duplex ed cde sspd}bd
/c{1 db/Collate ed cde sspd}bd
}{
/nc{/#copies ed}bd
/sps{statusdict/setpage get exec}bd
/dt{statusdict/settumble 2 copy known{get exec}{pop pop pop}ifelse
statusdict/setduplexmode 2 copy known{get exec}{pop pop pop}ifelse}bd
/c{pop}bd
}ifelse
/ffs{findfont exch scalefont d}bd/sf{setfont}bd
/ref{1 db findfont dup maxlength dict/NFD ed{exch dup/FID ne{exch NFD 3 1 roll
put}{pop pop}ifelse}forall/Encoding findresource dup length 256 eq{NFD/Encoding
3 -1 roll put}{pop}ifelse NFD dup/FontType get 3 ne{/CharStrings}{/CharProcs}
ifelse 2 copy known{2 copy get dup maxlength dict copy[/questiondown/space]{2
copy known{2 copy get 2 index/.notdef 3 -1 roll put pop exit}if pop}forall put
}{pop pop}ifelse dup NFD/FontName 3 -1 roll put NFD definefont pop end}bd
CP setpacking
(\004)cvn{}bd
% vim:ff=unix:
%%EOF
%%EndDocument
%%EndResource
%%BeginResource: encoding VIM-latin1
%%BeginDocument: /usr/share/vim/vim82/print/latin1.ps
%!PS-Adobe-3.0 Resource-Encoding
%%Title: VIM-latin1
%%Version: 1.0 0
%%EndComments
/VIM-latin1[
/.notdef /.notdef /.notdef /.notdef /.notdef /.notdef /.notdef /.notdef
/.notdef /.notdef /.notdef /.notdef /.notdef /.notdef /.notdef /.notdef
/.notdef /.notdef /.notdef /.notdef /.notdef /.notdef /.notdef /.notdef
/.notdef /.notdef /.notdef /.notdef /.notdef /.notdef /.notdef /.notdef
/space /exclam /quotedbl /numbersign /dollar /percent /ampersand /quotesingle
/parenleft /parenright /asterisk /plus /comma /minus /period /slash
/zero /one /two /three /four /five /six /seven
/eight /nine /colon /semicolon /less /equal /greater /question
/at /A /B /C /D /E /F /G
/H /I /J /K /L /M /N /O
/P /Q /R /S /T /U /V /W
/X /Y /Z /bracketleft /backslash /bracketright /asciicircum /underscore
/grave /a /b /c /d /e /f /g
/h /i /j /k /l /m /n /o
/p /q /r /s /t /u /v /w
/x /y /z /braceleft /bar /braceright /asciitilde /.notdef
/.notdef /.notdef /.notdef /.notdef /.notdef /.notdef /.notdef /.notdef
/.notdef /.notdef /.notdef /.notdef /.notdef /.notdef /.notdef /.notdef
/.notdef /.notdef /.notdef /.notdef /.notdef /.notdef /.notdef /.notdef
/.notdef /.notdef /.notdef /.notdef /.notdef /.notdef /.notdef /.notdef
/space /exclamdown /cent /sterling /currency /yen /brokenbar /section
/dieresis /copyright /ordfeminine /guillemotleft /logicalnot /hyphen /registered /macron
/degree /plusminus /twosuperior /threesuperior /acute /mu /paragraph /periodcentered
/cedilla /onesuperior /ordmasculine /guillemotright /onequarter /onehalf /threequarters /questiondown
/Agrave /Aacute /Acircumflex /Atilde /Adieresis /Aring /AE /Ccedilla
/Egrave /Eacute /Ecircumflex /Edieresis /Igrave /Iacute /Icircumflex /Idieresis
/Eth /Ntilde /Ograve /Oacute /Ocircumflex /Otilde /Odieresis /multiply
/Oslash /Ugrave /Uacute /Ucircumflex /Udieresis /Yacute /Thorn /germandbls
/agrave /aacute /acircumflex /atilde /adieresis /aring /ae /ccedilla
/egrave /eacute /ecircumflex /edieresis /igrave /iacute /icircumflex /idieresis
/eth /ntilde /ograve /oacute /ocircumflex /otilde /odieresis /divide
/oslash /ugrave /uacute /ucircumflex /udieresis /yacute /thorn /ydieresis]
/Encoding defineresource pop
% vim:ff=unix:
%%EOF
%%EndDocument
%%EndResource
%%EndProlog
%%BeginSetup
595 842 0 sps
1 nc
T F dt
T c
%%IncludeResource: font Courier
/_F0 /VIM-latin1 /Courier ref
/F0 10 /_F0 ffs
%%IncludeResource: font Courier-Bold
/_F1 /VIM-latin1 /Courier-Bold ref
/F1 10 /_F1 ffs
%%IncludeResource: font Courier-Oblique
/_F2 /VIM-latin1 /Courier-Oblique ref
/F2 10 /_F2 ffs
%%IncludeResource: font Courier-BoldOblique
/_F3 /VIM-latin1 /Courier-BoldOblique ref
/F3 10 /_F3 ffs
/UO -1 d
/UW 0.5 d
/BO -2.5 d
%%EndSetup
%%Page: 1 1
%%BeginPageSetup
sv
0 g
F0 sf
%%EndPageSetup
F1 sf
(newProject.js                                                                 Page 1)59.5 792.4 ms
F0 sf
0 0.502 0 r
(     1)59.5 772.4 ms
(const)107.5 772.4 ms
0 g
( arts = )s
0.502 0.502 0 r
([)s
0 0 0.753 r
("make a paper snowflake")s
0 g
(, )s
0 0 0.753 r
("glitter glue")s
0 g
(, )s
0 0 0.753 r
("painting")s
0 g
(, )s
0 0 0.753 r
("color a)s
( coloring book")107.5 762.4 ms
0 g
(, )s
0 0 0.753 r
("watch a youtube video on how to draw feet")s
0.502 0.502 0 r
(])s
0 0.502 0 r
(     2)59.5 752.4 ms
(const)107.5 752.4 ms
0 g
( outdoors = )s
0.502 0.502 0 r
([)s
0 0 0.753 r
("go hiking")s
0 g
(, )s
0 0 0.753 r
("go swimming")s
0 g
(, )s
0 0 0.753 r
("play a sport")s
0 g
(, )s
0 0 0.753 r
("walk the dog")s
0 g
(, )107.5 742.4 ms
0 0 0.753 r
("go biking")s
0.502 0.502 0 r
(])s
0 0.502 0 r
(     3)59.5 732.4 ms
(const)107.5 732.4 ms
0 g
( technology = )s
0.502 0.502 0 r
([)s
0 0 0.753 r
("play a videogame")s
0 g
(, )s
0 0 0.753 r
("read an online book")s
0 g
(, )s
0 0 0.753 r
("listen to mu)s
(sic")107.5 722.4 ms
0 g
(, )s
0 0 0.753 r
("go on social media")s
0 g
(, )s
0 0 0.753 r
("text your friends")s
0.502 0.502 0 r
(])s
0 g
(;)s
0 0.502 0 r
(     4)59.5 712.4 ms
(const)107.5 712.4 ms
0 g
( readline = require\()s
0 0 0.753 r
('readline')s
0 g
(\);)s
0 0.502 0 r
(     5)59.5 702.4 ms
0 g
( )107.5 702.4 ms
0 0.502 0 r
(     6)59.5 692.4 ms
(const)107.5 692.4 ms
0 g
( rl = readline.createInterface\()s
0.502 0.502 0 r
({)s
0 0.502 0 r
(     7)59.5 682.4 ms
0 g
(  input: process.stdin,)107.5 682.4 ms
0 0.502 0 r
(     8)59.5 672.4 ms
0 g
(  output: process.stdout)107.5 672.4 ms
0 0.502 0 r
(     9)59.5 662.4 ms
0.502 0.502 0 r
(})107.5 662.4 ms
0 g
(\);)s
0 0.502 0 r
(    10)59.5 652.4 ms
0 g
( )107.5 652.4 ms
0 0.502 0 r
(    11)59.5 642.4 ms
0.502 0.502 0 r
(function)107.5 642.4 ms
0 g
( ask\()s
0 0.502 0 r
(prompt)s
0 g
(\) )s
0.502 0.502 0 r
({)s
0 0.502 0 r
(    12)59.5 632.4 ms
0 g
(  )107.5 632.4 ms
0 0.502 0 r
(return)s
0 g
( )s
0 0.502 0 r
(new)s
0 g
( Promise\(\(resolve, reject\) => )s
0.502 0.502 0 r
({)s
0 0.502 0 r
(    13)59.5 622.4 ms
0 g
(    rl.question\()107.5 622.4 ms
0 0.502 0 r
(prompt)s
0 g
(, input => resolve\(input\)\);)s
0 0.502 0 r
(    14)59.5 612.4 ms
0 g
(  )107.5 612.4 ms
0.502 0.502 0 r
(})s
0 g
(\);)s
0 0.502 0 r
(    15)59.5 602.4 ms
0.502 0.502 0 r
(})107.5 602.4 ms
0 0.502 0 r
(    16)59.5 592.4 ms
0 g
( )107.5 592.4 ms
0 0.502 0 r
(    17)59.5 582.4 ms
(async)107.5 582.4 ms
0 g
( )s
0.502 0.502 0 r
(function)s
0 g
( main\(\) )s
0.502 0.502 0 r
({)s
0 0.502 0 r
(    18)59.5 572.4 ms
0 g
(  )107.5 572.4 ms
0.502 0.502 0 r
(let)s
0 g
( name = )s
0 0.502 0 r
(await)s
0 g
( ask\()s
0 0 0.753 r
(")s
0.753 0 0.753 r
(\\n)s
0 0 0.753 r
(What is your name? ")s
0 g
(\);)s
0 0.502 0 r
(    19)59.5 562.4 ms
0 g
(  )107.5 562.4 ms
0.502 0.502 0 r
(var)s
0 g
( activity = )s
0 0 0.753 r
("A")s
0 g
(;)s
0 0.502 0 r
(    20)59.5 552.4 ms
0 g
(  )107.5 552.4 ms
0.502 0.502 0 r
(let)s
0 g
( cat = )s
0 0.502 0 r
(await)s
0 g
( ask\()s
0 0 0.753 r
(")s
0.753 0 0.753 r
(\\n)s
0 0 0.753 r
(So, ")s
0 g
(+name+)s
0 0 0.753 r
(", what do you want to do to cure your b)s
(oredom? \(Type A for arts, O for outdoors, and T for technology\)")107.5 542.4 ms
0 g
(\);)s
0 0.502 0 r
(    21)59.5 532.4 ms
0 g
(  )107.5 532.4 ms
0 0.502 0 r
(if)s
0 g
( \(cat == )s
0 0 0.753 r
("A")s
0 g
(\))s
0.502 0.502 0 r
({)s
0 0.502 0 r
(    22)59.5 522.4 ms
0 g
(    activity = arts)107.5 522.4 ms
0.502 0.502 0 r
([)s
0 g
(Math.floor\(\(Math.random\(\)*6\)-1\))s
0.502 0.502 0 r
(])s
0 g
(;)s
0 0.502 0 r
(    23)59.5 512.4 ms
0 g
(  )107.5 512.4 ms
0.502 0.502 0 r
(})s
0 0.502 0 r
(    24)59.5 502.4 ms
0 g
(  )107.5 502.4 ms
0 0.502 0 r
(if)s
0 g
( \(cat == )s
0 0 0.753 r
("O")s
0 g
(\))s
0.502 0.502 0 r
({)s
0 0.502 0 r
(    25)59.5 492.4 ms
0 g
(    activity = outdoors)107.5 492.4 ms
0.502 0.502 0 r
([)s
0 g
(Math.floor\(\(Math.random\(\)*6\)-1\))s
0.502 0.502 0 r
(])s
0 g
(;)s
0 0.502 0 r
(    26)59.5 482.4 ms
0 g
(  )107.5 482.4 ms
0.502 0.502 0 r
(})s
0 0.502 0 r
(    27)59.5 472.4 ms
0 g
(  )107.5 472.4 ms
0 0.502 0 r
(if)s
0 g
( \(cat == )s
0 0 0.753 r
("T")s
0 g
(\))s
0.502 0.502 0 r
({)s
0 0.502 0 r
(    28)59.5 462.4 ms
0 g
(    activity = technology)107.5 462.4 ms
0.502 0.502 0 r
([)s
0 g
(Math.floor\(\(Math.random\(\)*6\)-1\))s
0.502 0.502 0 r
(])s
0 g
(;)s
0 0.502 0 r
(    29)59.5 452.4 ms
0 g
(  )107.5 452.4 ms
0.502 0.502 0 r
(})s
0 0.502 0 r
(    30)59.5 442.4 ms
0 g
(  console.log\()107.5 442.4 ms
0 0 0.753 r
("You should ")s
0 g
(+activity+)s
0 0 0.753 r
("!")s
0 g
(\);)s
0 0.502 0 r
(    31)59.5 432.4 ms
0 g
(  process.exit\(\);)107.5 432.4 ms
0 0.502 0 r
(    32)59.5 422.4 ms
0.502 0.502 0 r
(})107.5 422.4 ms
0 0.502 0 r
(    33)59.5 412.4 ms
0 g
( )107.5 412.4 ms
0 0.502 0 r
(    34)59.5 402.4 ms
0 g
(main\(\);)107.5 402.4 ms
0 0.502 0 r
(    35)59.5 392.4 ms
re sp
%%PageTrailer
%%Trailer
%%Pages: 1
%%EOF
